{
    "web": {
        "client_id": "120953659202-7jmt1cs90om3abhjsqr4udm9rvgn6aan.apps.googleusercontent.com",
        "project_id": "xauthenticity-1480339947126",
        "auth_uri": "https://accounts.google.com/o/oauth2/auth",
        "token_uri": "https://accounts.google.com/o/oauth2/token",
        "auth_provider_x509_cert_url": "https://www.googleapis.com/oauth2/v1/certs",
        "client_secret": "jmYZiHqoDS8i3es2P2lTMI1e",
        "redirect_uris": [
            "http://localhost/youtube/",
            "https://www.xauthenticity.com/youtube/"
        ]
    }
}